{
    "statusCodes": {
        "1001": "General Success",
        "1011": "Record created successfully",
        "1012": "Record fetched successfully",
        "1013": "Record deleted successfully",
        "1014": "Record updated successfully",
        "1028": "Data fetched successfully",
        "2001": "Login Failed",
        "2002": "Inactive User",
        "2011": "Record creation failed",
        "2012": "Record fetch failed",
        "2013": "Record deletion failed",
        "2014": "Record update failed",
        "2028": "Data fetch failed",
        "2033": "Record with the same name already exists",
        "2034": "Online name already exists",
        "2035": "Booking Window Start must be before Booking Window End",
        "2036": "Mobile Carrier Name Should Not Be Same",
        "2038": "Client Facing Name already exists",
        "2039": "The specified user data is invalid",
        "2040": "Record can not be deleted due to dependency",
        "2041": "There is no dependency for this record we can proceed for delete",
        "2042": "No Inventory Groups or Units of Measure may be duplicated",
        "2043": "Product_Code__c with the same value already exists",
        "2044": "This Scale is being used in an Active Compensation Method and cannot be inactivated. Please change the compensation method and try again",
        "2045": "Resource Should Not Be Same",
        "2046": "Priority Should Not Be Same",
        "2047": "Resource And Priority Should Not Be Same",
        "2048": "All Visit Types marked as Active must have a Name",
        "2049": "Visit Types Name Should Not Be Same",
        "2050": "All Client Flags marked as Active must have a Name",
        "2051": "Client Flag Name Should Not Be Same",
        "2052": "All Occupations must have a Name",
        "2053": "Occupations Name Should Not Be Same",
        "2054": "Mobile Carriers must have a Name",
        "2055": "Mobile Carriers Name Should Not Be Same",
        "2056": "Mail not sent",
        "2057": "Mail sent Successfully",
        "2058": "Please upload Image fomats (jpeg, png, jpg..)",
        "2059": "Duplicate found. No two payment types may have the same name",
        "2060": "Duplicate found. No two payment types may have the same abbreviation",
        "2061": "Duplicate found. No two payment types may have the same sort order",
        "2062": "Sunday Start Time must be prior to End Time",
        "2063": "Monday Start Time must be prior to End Time",
        "2064": "Tuesday Start Time must be prior to End Time",
        "2065": "Wednesday Start Time must be prior to End Time",
        "2066": "Thursday Start Time must be prior to End Time",
        "2067": "Friday Start Time must be prior to End Time",
        "2068": "Saturday Start Time must be prior to End Time",
        "2069": "Custom Hours Start time must be prior to End Time",
        "2070": "The Begin Date is after the End Date",
        "2071": "Invalid Token",
        "2072": "We have not found city with your pincode. Please enter below city,state,country",
        "2073": "Invalid Username",
        "2074": "Duplicate found. No two promotions may have the same name",
        "2075": "Duplicate found. No two promotions may have the same sort order",
        "2076": "Duplicate Marketing Set name found. All marketing sets must have a unique name",
        "2078": "One Week or One Weekday view requires selection of a Worker",
        "2079": "Validation for duplicate name missing",
        "2080": "No Dates Avilable",
        "2081": "Gift Number for redemption could not be found",
        "2082": "Required Resource Unavailable",
        "2083": "Membership Id with the same already exists",
        "2084": "No rows matched with id",
        "2085": "Token Expired",
        "2086": "Gift Redeem code has expired",
        "2087": "Gift Number has no remaining balance",
        "2088": "There is already a client record with that name and email combination. Please make the necessary changes, and try again.",
        "2089": "Unknown database Found",
        "2090": "Required Resource Unavailable",
        "2091": "We’re sorry, the date and time option you have selected is no longer available. Please select a different time",
        "2092": "There is already a client record with that Email and PIN combination. Please make the necessary changes, and try again.",
        "2093": "There is already an account with this email",
        "2094": "There is already a schema with this key",
        "2095": "Invalid Key found",
        "2096": "Invalid selection",
        "2097": "A record with same date already exist",
        "2098": "Worker Pin already exists",
        "2099": "Worker Name already exists",
        "2100": "Username Name already exists",
        "2101": "Appointment can not move",
        "2102": "Missing MerchantId And AccessToken",
        "2103": "Worker is inActive",
        "2104": "Sort Order already exists",
        "2105": "An Appointment with Status Checked In, Complete should not be chnaged to other status",
        "2106": "This Appointment is in Canceled Status you con not send an Reminder",
        "2107": "No slots available for this day",
        "9997": "No data found",
        "9951": "Username or Password is incorrect",
        "9995": "Missing mandatory fields",
        "9996": "Gift Number Cannot be Duplicate",
        "9998": "Duplicate Records",
        "9999": "An unexpected error occurred on the server side"
    },
    "responseTemplte": {
        "status": 0,
        "message": "",
        "result": {}
    },
    "auroraMySQLDB": {
        "host": "nodejs.ctcsmr785ze2.us-east-1.rds.amazonaws.com",
        "port": 3306,
        "user": "stxbeacon",
        "password": "webappclouds"
    },
    "MySQLDB": {
        "host": "localhost",
        "port": 3306,
        "user": "root"
    },
    "globalDBName": "stx",
    "logsPath": "logs/stxcloud.log",
    "logsLevel": "debug",
    "booleanTrue": 1,
    "booleanFalse": 0,
    "companyLogoFilePath": "companies",
    "workerFilePath": "workers",
    "productFilePath": "products",
    "paymentTypesFilePath": "paymenttypes",
    "onlineBookingFilePath": "onlinebooking",
    "recieptEmailPath": "uploads/receipts/",
    "clientPictureLocation": "clients",
    "uploadsPath": "uploads/",
    "serviceGroups": "Service Groups",
    "inventoryGroups": "Inventory Groups",
    "cashDrawers": "Cash Drawers",
    "receiptMemo": "Receipt Memo",
    "companyColors": "Company Colors",
    "visitTypes": "Client Visit Types",
    "clientFlags": "Client Flags",
    "occupations": "Client Occupations",
    "favoriteItems": "Favorite Items",
    "apptBooking": "Appt Booking",
    "onlineBooking": "Appt Online Booking",
    "mobileCarriers": "Mobile Carriers",
    "clientQuickAddRequiredFields": "Client Quick Add Required Fields",
    "clientCardRequiredFields": "Client Card Required Fields",
    "onlineBookingRequiredFields": "Online Booking Required Fields",
    "apptNotification": "Appt Notification",
    "apptReminders": "Appt Reminders",
    "posTax": "Sales Tax",
    "posMerchantOnline": "Merchant Online",
    "posMerchantInStore": "Merchant In Store",
    "posPaymentGateway": "Payment Gateway",
    "referFriend": "Refer a Friend",
    "giftsOnline": "Gifts Online",
    "emailApp": "Email App",
    "emailAppSubuser": "Email App Subuser",
    "sendGridEndPoint": "https://api.sendgrid.com/v3/",
    "startTimeOfDay": "00:00:00",
    "endtTimeOfDay": "23:59:59",
    "dbTables": {
        "preferenceTBL": "Preference__c",
        "serviceTBL": "Service__c",
        "resourceTBL": "Resource__c",
        "suppliersTBL": "Supplier__c",
        "serviceResourceTBL": "Service_Resource__c",
        "setupProductLineTBL": "Product_Line__c",
        "setupProductTBL": "Product__c",
        "productSupplierTBL": "ProductSupplier__c",
        "setupMembershipTBL": "Membership__c",
        "setupCompensationTBL": "Compensation__c",
        "compensationRunTBL": "Compensation_Run__c",
        "setupGoalsTBL": "Goal__c",
        "setupUsersTBL": "User__c",
        "companyHoursTBL": "Company_Hours__c",
        "workerGoalsTBL": "Worker_Goal__c",
        "paymentTypesTBL": "Payment_Types__c",
        "workerServiceTBL": "Worker_Service__c",
        "customHoursTBL": "CustomHours__c",
        "permissionsTBL": "Permission_Set__c",
        "promotionTBL": "Promotion__c",
        "ticketPaymentTBL": "Ticket_Payment__c",
        "clientMembershipTBL": "Client_Membership__c",
        "inventoryUsageTBL": "Inventory_Usage__c",
        "batchReportTBL": "Batch_Report__c",
        "purchaseOrdersTBL": "Purchase_Order__c",
        "ticketServiceTBL": "Ticket_Service__c",
        "purchaseOrderDetailsTBL": "Purchase_Order_Detail__c",
        "marketingSetTBL": "Marketing_Set__c",
        "apptTicketTBL": "Appt_Ticket__c",
        "ContactTBL": "Contact__c",
        "EmailTBL": "Email__c",
        "ticketProductTBL": "Ticket_Product__c",
        "ticketOtherTBL": "Ticket_Other__c",
        "packageTBL": "Package__c",
        "clientRewardTBL": "Client_Reward__c",
        "clientPackageTBL": "Client_Package__c",
        "marketingRewards": "Reward__c",
        "clientRewardDetailTBL": "Client_Reward_Detail__c",
        "ticketPaymentsTBL": "Ticket_Payment__c",
        "cashInOutTBL": "Cash_In_Out__c",
        "dailyCashTBL": "Daily_Cash__c",
        "ticketTipTBL": "Ticket_Tip__c",
        "timeClockTBL": "Time_Clock_Entry__c",
        "waitingListTBL": "Waiting_List__c"
    },
    "RSAKeyPassword": "Web@ppclouds",
    "forgotSubject": "STX - Reset Your Password",
    "forgotPinSubject": "STX - Reset Your Pin",
    "userNameChangedSubject": "STX - Username changed",
    "reminderSentSubject": "You have an appointment coming up!",
    "forgotHTML": "assets/templates/forgot.html",
    "bookStandingHTML": "assets/templates/bookStanding.html",
    "signUpDB": "assets/db/stx_def.sql",
    "clientForgotPinHTML": "assets/templates/clientforgotpin.html",
    "userNameChangeHTML": "assets/templates/userName_Change.html",
    "reminderSentHTML": "assets/templates/reminderSent.html",
    "clientCreateHTML": "assets/templates/clientCreate.html",
    "clientApproveHTML": "assets/templates/clientApprove.html",
    "signUpHTML": "assets/templates/signUp.html",
    "recieptEmailText": " Attached is your green receipt from ",
    "recieptEmailReadHtmlPath": "assets/templates/reciept.html",
    "recieptEmailSub": " Green Receipt: ",
    "bseURL": "https://stx.yoursalonapp.com",
    "resetLink": "/#/resetpassword/",
    "clientLink": "/#/clientlogin/",
    "fromNumber": "12567871691",
    "twilioAccountSid": "AC7f95301ff64c4183f8bcd56dd05bde4c",
    "twilioAuthToken": "3a8dc218920d7f32a940cb791b68cd94",
    "defaultCountryCode": "+91",
    "cloverCfg": {
        "server": "https://sandbox.dev.clover.com",
        "remoteAppId": "HTFNJ1ACK0HER.BD268FGF43RAR",
        "merchantId": "XBP993VYJ2P41",
        "accessToken": "9128f661-ae8a-3257-9d88-e0abe8513921"
    },
    "sendGridAPIKey": "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",
    "AWSAccessKey": "AKIAWGRGQ5WLDSCQM4O4",
    "AWSSecretKey": "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",
    "S3Region": "us-east-1",
    "S3Name": "stxcloud",
    "S3DefaultFolder": "uploads/A0A1H00000UGACMPID/",
    "S3URL": "https://s3.amazonaws.com/stxcloud/",
    "starLogo": "static/star.png",
    "companyLogo": "static/logo-hover.png",
    "emServerURL": "https://em.stxcloud.com/digitalmarketing/customer/index.php/guest/create_new",
    "ccSalesMail": "sales@stxsoftware.com",
    "supportSalesMail": "support@stxsoftware.com",
    "timeZones": [
        "Africa/Algiers",
        "Africa/Cairo",
        "Africa/Casablanca",
        "Africa/Johannesburg",
        "Africa/Nairobi",
        "America/Adak",
        "America/Anchorage",
        "America/Argentina/Buenos_Aires",
        "America/Bogota",
        "America/Caracas",
        "America/Chicago",
        "America/Denver",
        "America/El_Salvador",
        "America/Halifax",
        "America/Indiana/Indianapolis",
        "America/Lima",
        "America/Los_Angeles",
        "America/Mazatlan",
        "America/Mexico_City",
        "America/New_York",
        "America/Panama",
        "America/Phoenix",
        "America/Puerto_Rico",
        "America/Santiago",
        "America/Sao_Paulo",
        "America/Scoresbysund",
        "America/St_Johns",
        "America/Tijuana",
        "Asia/Baghdad",
        "Asia/Baku",
        "Asia/Bangkok",
        "Asia/Beirut",
        "Asia/Colombo",
        "Asia/Dhaka",
        "Asia/Dubai",
        "Asia/Ho_Chi_Minh",
        "Asia/Hong_Kong",
        "Asia/Jakarta",
        "Asia/Jerusalem",
        "Asia/Kabul",
        "Asia/Kamchatka",
        "Asia/Karachi",
        "Asia/Kathmandu",
        "Asia/Kolkata",
        "Asia/Kuala_Lumpur",
        "Asia/Kuwait",
        "Asia/Manila",
        "Asia/Rangoon",
        "Asia/Riyadh",
        "Asia/Seoul",
        "Asia/Shanghai",
        "Asia/Singapore",
        "Asia/Taipei",
        "Asia/Tashkent",
        "Asia/Tbilisi",
        "Asia/Tehran",
        "Asia/Tokyo",
        "Asia/Yekaterinburg",
        "Asia/Yerevan",
        "Atlantic/Azores",
        "Atlantic/Bermuda",
        "Atlantic/Cape_Verde",
        "Atlantic/South_Georgia",
        "Australia/Adelaide",
        "Australia/Brisbane",
        "Australia/Darwin",
        "Australia/Lord_Howe",
        "Australia/Perth",
        "Australia/Sydney",
        "Europe/Amsterdam",
        "Europe/Athens",
        "Europe/Berlin",
        "Europe/Brussels",
        "Europe/Bucharest",
        "Europe/Dublin",
        "Europe/Helsinki",
        "Europe/Istanbul",
        "Europe/Lisbon",
        "Europe/London",
        "Europe/Minsk",
        "Europe/Moscow",
        "Europe/Paris",
        "Europe/Prague",
        "Europe/Rome",
        "GMT",
        "Pacific/Auckland",
        "Pacific/Chatham",
        "Pacific/Enderbury",
        "Pacific/Fiji",
        "Pacific/Gambier",
        "Pacific/Guadalcanal",
        "Pacific/Honolulu",
        "Pacific/Kiritimati",
        "Pacific/Marquesas",
        "Pacific/Niue",
        "Pacific/Norfolk",
        "Pacific/Pago_Pago",
        "Pacific/Pitcairn",
        "Pacific/Tongatapu"
    ],
    "EmfiledEmails": [
        "vikramjit.mavi@gmail.com",
        "madhu-node@webappclouds.com"
    ]
}